<?xml version="1.0" encoding="UTF-8" standalone="no"?>
<svg
   xmlns:dc="http://purl.org/dc/elements/1.1/"
   xmlns:cc="http://creativecommons.org/ns#"
   xmlns:rdf="http://www.w3.org/1999/02/22-rdf-syntax-ns#"
   xmlns:svg="http://www.w3.org/2000/svg"
   xmlns="http://www.w3.org/2000/svg"
   xmlns:sodipodi="http://sodipodi.sourceforge.net/DTD/sodipodi-0.dtd"
   xmlns:inkscape="http://www.inkscape.org/namespaces/inkscape"
   width="64"
   height="64"
   version="1.1"
   viewBox="0 0 16.933 16.933"
   id="svg31"
   sodipodi:docname="default-fileopen.svg"
   inkscape:version="0.92.3 (2405546, 2018-03-11)">
  <metadata
     id="metadata35">
    <rdf:RDF>
      <cc:Work
         rdf:about="">
        <dc:format>image/svg+xml</dc:format>
        <dc:type
           rdf:resource="http://purl.org/dc/dcmitype/StillImage" />
      </cc:Work>
    </rdf:RDF>
  </metadata>
  <sodipodi:namedview
     pagecolor="#ffffff"
     bordercolor="#666666"
     borderopacity="1"
     objecttolerance="10"
     gridtolerance="10"
     guidetolerance="10"
     inkscape:pageopacity="0"
     inkscape:pageshadow="2"
     inkscape:window-width="960"
     inkscape:window-height="1052"
     id="namedview33"
     showgrid="false"
     inkscape:zoom="5.2149125"
     inkscape:cx="3.5983566"
     inkscape:cy="27.809954"
     inkscape:window-x="960"
     inkscape:window-y="28"
     inkscape:window-maximized="0"
     inkscape:current-layer="svg31" />
  <defs
     id="defs7">
    <linearGradient
       id="c"
       x1="-197.1"
       x2="-196.91"
       y1="217.68"
       y2="219.36"
       gradientTransform="matrix(2.6726 -2.6726 2.6726 2.6726 5.4095e-6 -1058.5)"
       gradientUnits="userSpaceOnUse">
      <stop
         offset="0"
         id="stop2" />
      <stop
         stop-opacity="0"
         offset="1"
         id="stop4" />
    </linearGradient>
  </defs>
  <path
     d="m3.44 2.381c-0.294 0-0.395 0.269-0.53 0.53h-0.793a0.528 0.528 0 0 0-0.53 0.528v5.292c0 0.293 0.237 0.53 0.53 0.53h12.7c0.293 0 0.529-0.237 0.529-0.53v-5.292a0.528 0.528 0 0 0-0.53-0.529h-7.142c-0.155-0.249-0.236-0.53-0.53-0.53z"
     fill="#5294e2"
     style="paint-order:markers stroke fill"
     id="path9" />
  <path
     d="m3.44 2.381c-0.294 0-0.395 0.269-0.53 0.53h-0.793a0.528 0.528 0 0 0-0.53 0.528v5.292c0 0.293 0.237 0.53 0.53 0.53h12.7c0.293 0 0.529-0.237 0.529-0.53v-5.292a0.528 0.528 0 0 0-0.53-0.529h-7.142c-0.155-0.249-0.236-0.53-0.53-0.53z"
     opacity=".18"
     style="paint-order:markers stroke fill;opacity:1;fill:#fbb3bc;fill-opacity:1"
     id="path11" />
  <rect
     x="2.381"
     y="1.323"
     width="12.171"
     height="7.408"
     ry=".529"
     fill="#fff"
     stroke="#000"
     stroke-opacity=".039"
     stroke-width=".265"
     style="paint-order:markers stroke fill"
     id="rect13" />
  <rect
     x="2.381"
     y="1.323"
     width="12.171"
     height="7.408"
     ry=".529"
     fill="#fff"
     style="paint-order:markers stroke fill;stroke-width:0.02645781;stroke-miterlimit:4;stroke-dasharray:none"
     id="rect15" />
  <rect
     x=".529"
     y="6.35"
     width="15.875"
     height="8.467"
     ry=".529"
     fill="#5294e2"
     style="paint-order:markers stroke fill;fill:#80d3ee;fill-opacity:1"
     id="rect17" />
  <rect
     x="4.233"
     y="5.556"
     width="8.467"
     height=".529"
     ry=".265"
     opacity=".15"
     style="paint-order:stroke markers fill"
     id="rect19" />
  <path
     d="m8.467 5.027h7.408c0.293 0 0.53 0.236 0.53 0.529v3.969c0 0.293-0.237 0.529-0.53 0.529h-9.723c-0.294 0-0.677-0.276-0.53-0.53l2.316-3.968c0.147-0.253 0.236-0.53 0.529-0.53z"
     fill="#5294e2"
     style="paint-order:markers stroke fill;fill:#80d3ee;fill-opacity:1"
     id="path21" />
  <rect
     x="4.233"
     y="2.381"
     width="8.467"
     height=".529"
     ry=".265"
     opacity=".15"
     style="paint-order:stroke markers fill"
     id="rect25" />
  <rect
     x="4.233"
     y="3.439"
     width="8.467"
     height=".529"
     ry=".265"
     opacity=".15"
     style="paint-order:stroke markers fill"
     id="rect27" />
  <rect
     x="4.233"
     y="4.498"
     width="8.467"
     height=".529"
     ry=".265"
     opacity=".15"
     style="paint-order:stroke markers fill"
     id="rect29" />
</svg>
