<?xml version="1.0" encoding="UTF-8" standalone="no"?>
<svg
   xmlns:dc="http://purl.org/dc/elements/1.1/"
   xmlns:cc="http://creativecommons.org/ns#"
   xmlns:rdf="http://www.w3.org/1999/02/22-rdf-syntax-ns#"
   xmlns:svg="http://www.w3.org/2000/svg"
   xmlns="http://www.w3.org/2000/svg"
   xmlns:sodipodi="http://sodipodi.sourceforge.net/DTD/sodipodi-0.dtd"
   xmlns:inkscape="http://www.inkscape.org/namespaces/inkscape"
   width="64"
   height="64"
   version="1.1"
   viewBox="0 0 16.933 16.933"
   id="svg31"
   sodipodi:docname="default-folder-system.svg"
   inkscape:version="0.92.3 (2405546, 2018-03-11)">
  <metadata
     id="metadata35">
    <rdf:RDF>
      <cc:Work
         rdf:about="">
        <dc:format>image/svg+xml</dc:format>
        <dc:type
           rdf:resource="http://purl.org/dc/dcmitype/StillImage" />
      </cc:Work>
    </rdf:RDF>
  </metadata>
  <sodipodi:namedview
     pagecolor="#ffffff"
     bordercolor="#666666"
     borderopacity="1"
     objecttolerance="10"
     gridtolerance="10"
     guidetolerance="10"
     inkscape:pageopacity="0"
     inkscape:pageshadow="2"
     inkscape:window-width="960"
     inkscape:window-height="1052"
     id="namedview33"
     showgrid="false"
     inkscape:zoom="3.6875"
     inkscape:cx="21.423729"
     inkscape:cy="42.305085"
     inkscape:window-x="960"
     inkscape:window-y="28"
     inkscape:window-maximized="0"
     inkscape:current-layer="svg31" />
  <defs
     id="defs7">
    <linearGradient
       id="a"
       x1="-197.1"
       x2="-196.91"
       y1="217.68"
       y2="219.37"
       gradientTransform="rotate(-45 -338.07 -140.03)"
       gradientUnits="userSpaceOnUse">
      <stop
         offset="0"
         id="stop2" />
      <stop
         stop-opacity="0"
         offset="1"
         id="stop4" />
    </linearGradient>
  </defs>
  <path
     style="fill:#5294e2;paint-order:markers stroke fill"
     inkscape:connector-curvature="0"
     id="path9"
     d="m 3.44,2.378 c -0.294,0 -0.395,0.269 -0.53,0.53 H 2.117 a 0.528,0.528 0 0 0 -0.53,0.528 v 5.292 c 0,0.293 0.237,0.53 0.53,0.53 h 12.7 c 0.293,0 0.529,-0.237 0.529,-0.53 V 3.436 A 0.528,0.528 0 0 0 14.816,2.907 H 7.674 C 7.519,2.658 7.438,2.377 7.144,2.377 Z" />
  <path
     style="opacity:1;paint-order:markers stroke fill;fill:#fbb3bc;fill-opacity:1"
     inkscape:connector-curvature="0"
     id="path11"
     d="m 3.44,2.378 c -0.294,0 -0.395,0.269 -0.53,0.53 H 2.117 a 0.528,0.528 0 0 0 -0.53,0.528 v 5.292 c 0,0.293 0.237,0.53 0.53,0.53 h 12.7 c 0.293,0 0.529,-0.237 0.529,-0.53 V 3.436 A 0.528,0.528 0 0 0 14.816,2.907 H 7.674 C 7.519,2.658 7.438,2.377 7.144,2.377 Z" />
  <rect
     style="fill:#fbb3bc;paint-order:markers stroke fill;fill-opacity:1"
     id="rect13"
     ry="0.26499999"
     height="5.027"
     width="12.171"
     y="3.6999891"
     x="2.381" />
  <rect
     style="fill:#80d3ee;paint-order:markers stroke fill;fill-opacity:1"
     id="rect15"
     ry="0.52899998"
     height="9.5249996"
     width="15.875"
     y="5.2899852"
     x="0.52899998" />
  <path
     style="fill:#80d3ee;paint-order:markers stroke fill;fill-opacity:1"
     inkscape:connector-curvature="0"
     id="path17"
     d="m 8.467,4.23 h 7.408 c 0.293,0 0.53,0.236 0.53,0.53 v 3.968 c 0,0.293 -0.237,0.529 -0.53,0.529 H 6.152 c -0.294,0 -0.677,-0.276 -0.53,-0.53 L 7.938,4.759 C 8.085,4.506 8.174,4.23 8.467,4.23 Z" />
  <g
     style="fill:#ffffff;paint-order:stroke markers fill"
     id="g25"
     transform="translate(0,-280.07)">
    <path
       inkscape:connector-curvature="0"
       id="path21"
       d="m 8.467,288.346 a 1.502,1.502 0 0 0 -1.502,1.502 1.502,1.502 0 0 0 1.502,1.502 1.502,1.502 0 0 0 1.502,-1.502 1.502,1.502 0 0 0 -1.502,-1.502 z m 0,0.682 a 0.82,0.82 0 0 1 0.819,0.82 0.82,0.82 0 0 1 -0.82,0.819 0.82,0.82 0 0 1 -0.819,-0.82 0.82,0.82 0 0 1 0.82,-0.819 z" />
    <path
       inkscape:connector-curvature="0"
       id="path23"
       d="M 8.194,287.73 H 8.74 v 0.957 H 8.194 Z m 0,3.278 H 8.74 v 0.956 H 8.194 Z m 2.389,-1.434 v 0.547 H 9.628 v -0.547 z m -3.277,0 v 0.547 H 6.35 v -0.547 z m 2.851,1.577 -0.387,0.387 -0.675,-0.676 0.386,-0.386 z m -2.317,-2.317 -0.387,0.386 -0.676,-0.676 0.386,-0.386 z m -0.677,2.704 -0.386,-0.387 0.676,-0.675 0.386,0.386 z m 2.317,-2.318 -0.385,-0.386 0.675,-0.676 0.387,0.386 z" />
  </g>
</svg>
