<?xml version="1.0" encoding="UTF-8" standalone="no"?>
<!-- Created with Inkscape (http://www.inkscape.org/) -->

<svg
   xmlns:dc="http://purl.org/dc/elements/1.1/"
   xmlns:cc="http://creativecommons.org/ns#"
   xmlns:rdf="http://www.w3.org/1999/02/22-rdf-syntax-ns#"
   xmlns:svg="http://www.w3.org/2000/svg"
   xmlns="http://www.w3.org/2000/svg"
   xmlns:sodipodi="http://sodipodi.sourceforge.net/DTD/sodipodi-0.dtd"
   xmlns:inkscape="http://www.inkscape.org/namespaces/inkscape"
   width="30.09mm"
   height="65.020569mm"
   viewBox="0 0 30.089999 65.020568"
   version="1.1"
   id="svg854"
   inkscape:version="0.92.3 (2405546, 2018-03-11)"
   sodipodi:docname="drawing.svg">
  <defs
     id="defs848" />
  <sodipodi:namedview
     id="base"
     pagecolor="#ffffff"
     bordercolor="#666666"
     borderopacity="1.0"
     inkscape:pageopacity="0.0"
     inkscape:pageshadow="2"
     inkscape:zoom="0.35"
     inkscape:cx="-710.3363"
     inkscape:cy="520.00006"
     inkscape:document-units="mm"
     inkscape:current-layer="layer1"
     showgrid="false"
     fit-margin-top="0"
     fit-margin-left="0"
     fit-margin-right="0"
     fit-margin-bottom="0"
     inkscape:window-width="1920"
     inkscape:window-height="1052"
     inkscape:window-x="0"
     inkscape:window-y="28"
     inkscape:window-maximized="1" />
  <metadata
     id="metadata851">
    <rdf:RDF>
      <cc:Work
         rdf:about="">
        <dc:format>image/svg+xml</dc:format>
        <dc:type
           rdf:resource="http://purl.org/dc/dcmitype/StillImage" />
        <dc:title></dc:title>
      </cc:Work>
    </rdf:RDF>
  </metadata>
  <g
     inkscape:label="Layer 1"
     inkscape:groupmode="layer"
     id="layer1"
     transform="translate(-3.4907648,-224.41993)">
    <g
       id="g1423"
       transform="matrix(0.17306128,0,0,0.17306128,44.046853,245.62921)">
      <rect
         rx="1.5312726"
         ry="1.5312726"
         y="-15.208317"
         x="-234.34525"
         height="53.672619"
         width="173.86905"
         id="rect1402"
         style="opacity:1;fill:#b3e4f5;fill-opacity:1;stroke:#fd74eb;stroke-width:0;stroke-linejoin:round;stroke-miterlimit:4;stroke-dasharray:none;stroke-dashoffset:0;stroke-opacity:1" />
      <rect
         style="opacity:1;fill:#99dcf1;fill-opacity:1;stroke:#fd74eb;stroke-width:0;stroke-linejoin:round;stroke-miterlimit:4;stroke-dasharray:none;stroke-dashoffset:0;stroke-opacity:1"
         id="rect1404"
         width="173.86905"
         height="53.672619"
         x="-234.34525"
         y="38.464302"
         ry="1.5312726"
         rx="1.5312726" />
      <rect
         rx="1.5312726"
         ry="1.5312726"
         y="92.136917"
         x="-234.34525"
         height="53.672619"
         width="173.86905"
         id="rect1406"
         style="opacity:1;fill:#80d3ee;fill-opacity:1;stroke:#fd74eb;stroke-width:0;stroke-linejoin:round;stroke-miterlimit:4;stroke-dasharray:none;stroke-dashoffset:0;stroke-opacity:1" />
      <rect
         style="opacity:1;fill:#67caeb;fill-opacity:1;stroke:#fd74eb;stroke-width:0;stroke-linejoin:round;stroke-miterlimit:4;stroke-dasharray:none;stroke-dashoffset:0;stroke-opacity:1"
         id="rect1408"
         width="173.86905"
         height="53.672619"
         x="-234.34525"
         y="145.80954"
         ry="1.5312726"
         rx="1.5312726" />
      <rect
         rx="1.5312726"
         ry="1.5312726"
         y="199.48216"
         x="-234.34525"
         height="53.672619"
         width="173.86905"
         id="rect1410"
         style="opacity:1;fill:#4ec2e8;fill-opacity:0.94117647;stroke:#fd74eb;stroke-width:0;stroke-linejoin:round;stroke-miterlimit:4;stroke-dasharray:none;stroke-dashoffset:0;stroke-opacity:1" />
      <rect
         style="opacity:1;fill:#fbb3bc;fill-opacity:1;stroke:#fd74eb;stroke-width:0;stroke-linejoin:round;stroke-miterlimit:4;stroke-dasharray:none;stroke-dashoffset:0;stroke-opacity:1"
         id="rect1412"
         width="173.86905"
         height="53.672619"
         x="-234.34525"
         y="-68.880936"
         ry="1.5312726"
         rx="1.5312726" />
      <rect
         rx="1.5312726"
         ry="1.5312726"
         y="-122.55356"
         x="-234.34525"
         height="53.672619"
         width="173.86905"
         id="rect1414"
         style="opacity:1;fill:#ffdede;fill-opacity:1;stroke:#fd74eb;stroke-width:0;stroke-linejoin:round;stroke-miterlimit:4;stroke-dasharray:none;stroke-dashoffset:0;stroke-opacity:1" />
    </g>
  </g>
</svg>
