<?xml version="1.0" encoding="UTF-8" standalone="no"?>
<svg
   xmlns:dc="http://purl.org/dc/elements/1.1/"
   xmlns:cc="http://creativecommons.org/ns#"
   xmlns:rdf="http://www.w3.org/1999/02/22-rdf-syntax-ns#"
   xmlns:svg="http://www.w3.org/2000/svg"
   xmlns="http://www.w3.org/2000/svg"
   xmlns:sodipodi="http://sodipodi.sourceforge.net/DTD/sodipodi-0.dtd"
   xmlns:inkscape="http://www.inkscape.org/namespaces/inkscape"
   width="64"
   height="64"
   version="1.1"
   id="svg28"
   sodipodi:docname="folder-important.svg"
   inkscape:version="0.92.3 (2405546, 2018-03-11)">
  <metadata
     id="metadata32">
    <rdf:RDF>
      <cc:Work
         rdf:about="">
        <dc:format>image/svg+xml</dc:format>
        <dc:type
           rdf:resource="http://purl.org/dc/dcmitype/StillImage" />
      </cc:Work>
    </rdf:RDF>
  </metadata>
  <sodipodi:namedview
     pagecolor="#ffffff"
     bordercolor="#666666"
     borderopacity="1"
     objecttolerance="10"
     gridtolerance="10"
     guidetolerance="10"
     inkscape:pageopacity="0"
     inkscape:pageshadow="2"
     inkscape:window-width="960"
     inkscape:window-height="1024"
     id="namedview30"
     showgrid="false"
     inkscape:zoom="3.6875"
     inkscape:cx="32.813559"
     inkscape:cy="32"
     inkscape:window-x="960"
     inkscape:window-y="28"
     inkscape:window-maximized="0"
     inkscape:current-layer="svg28" />
  <defs
     id="defs8">
    <style
       id="current-color-scheme"
       type="text/css" />
    <linearGradient
       id="a"
       x1="-197.1"
       x2="-196.91"
       y1="217.68"
       y2="219.37"
       gradientTransform="matrix(2.6726 -2.6726 2.6726 2.6726 4e-6 -1058.5)"
       gradientUnits="userSpaceOnUse">
      <stop
         offset="0"
         id="stop3" />
      <stop
         stop-opacity="0"
         offset="1"
         id="stop5" />
    </linearGradient>
  </defs>
  <path
     inkscape:connector-curvature="0"
     id="path10"
     style="fill:#5294e2;stroke-width:3.77959991;paint-order:markers stroke fill"
     d="m 13.001824,9.04802 c -1.111202,0 -1.492942,1.016712 -2.003188,2.003188 H 8.0014132 a 1.9956288,1.9956288 0 0 0 -2.003188,1.995629 V 33.04848 c 0,1.107423 0.8957652,2.003188 2.003188,2.003188 H 56.002333 c 1.107423,0 1.999409,-0.895765 1.999409,-2.003188 V 13.046837 A 1.9956288,1.9956288 0 0 0 55.998554,11.047428 H 29.00465 C 28.418812,10.106308 28.112665,9.0442404 27.001462,9.0442404 Z" />
  <path
     inkscape:connector-curvature="0"
     id="path12"
     style="opacity:1;stroke-width:3.77959991;paint-order:markers stroke fill;fill:#fbb3bc;fill-opacity:1"
     d="m 13.001824,9.04802 c -1.111202,0 -1.492942,1.016712 -2.003188,2.003188 H 8.0014132 a 1.9956288,1.9956288 0 0 0 -2.003188,1.995629 V 33.04848 c 0,1.107423 0.8957652,2.003188 2.003188,2.003188 H 56.002333 c 1.107423,0 1.999409,-0.895765 1.999409,-2.003188 V 13.046837 A 1.9956288,1.9956288 0 0 0 55.998554,11.047428 H 29.00465 C 28.418812,10.106308 28.112665,9.0442404 27.001462,9.0442404 Z" />
  <rect
     id="rect14"
     style="fill:#fbb3bc;stroke-width:3.77959991;paint-order:markers stroke fill;fill-opacity:1"
     ry="1.0015939"
     height="19.00005"
     width="46.001511"
     y="14.03705"
     x="8.9992275" />
  <rect
     id="rect16"
     style="fill:#80d3ee;stroke-width:3.77959991;paint-order:markers stroke fill;fill-opacity:1"
     ry="1.9994084"
     height="36.00069"
     width="60.001148"
     y="20.0466"
     x="1.9994084" />
  <path
     inkscape:connector-curvature="0"
     id="path18"
     style="fill:#80d3ee;stroke-width:3.77959991;paint-order:markers stroke fill;fill-opacity:1"
     d="M 32.001873,16.04028 H 60.00115 c 1.107423,0 2.003188,0.891986 2.003188,2.003188 v 14.997453 c 0,1.107423 -0.895765,1.999408 -2.003188,1.999408 H 23.252099 c -1.111202,0 -2.558789,-1.043169 -2.003188,-2.003188 L 30.002465,18.039688 C 30.558066,17.08345 30.89445,16.04028 32.001873,16.04028 Z" />
  <path
     d="m32 30a9 9 0 1 0 0 18 9 9 0 0 0 0-18zm-1.2857 2.5714h2.5714v7.7143h-2.5714zm1.2857 9a1.2857 1.2857 0 1 1 0 2.5714 1.2857 1.2857 0 0 1 0-2.5714z"
     color="#727272"
     fill="#fff"
     id="path24" />
</svg>
