<?xml version="1.0" encoding="UTF-8" standalone="no"?>
<svg
   xmlns:dc="http://purl.org/dc/elements/1.1/"
   xmlns:cc="http://creativecommons.org/ns#"
   xmlns:rdf="http://www.w3.org/1999/02/22-rdf-syntax-ns#"
   xmlns:svg="http://www.w3.org/2000/svg"
   xmlns="http://www.w3.org/2000/svg"
   xmlns:sodipodi="http://sodipodi.sourceforge.net/DTD/sodipodi-0.dtd"
   xmlns:inkscape="http://www.inkscape.org/namespaces/inkscape"
   width="64"
   height="64"
   version="1.1"
   viewBox="0 0 16.933 16.933"
   id="svg25"
   sodipodi:docname="folder-print.svg"
   inkscape:version="0.92.3 (2405546, 2018-03-11)">
  <metadata
     id="metadata29">
    <rdf:RDF>
      <cc:Work
         rdf:about="">
        <dc:format>image/svg+xml</dc:format>
        <dc:type
           rdf:resource="http://purl.org/dc/dcmitype/StillImage" />
      </cc:Work>
    </rdf:RDF>
  </metadata>
  <sodipodi:namedview
     pagecolor="#ffffff"
     bordercolor="#666666"
     borderopacity="1"
     objecttolerance="10"
     gridtolerance="10"
     guidetolerance="10"
     inkscape:pageopacity="0"
     inkscape:pageshadow="2"
     inkscape:window-width="960"
     inkscape:window-height="1052"
     id="namedview27"
     showgrid="false"
     inkscape:zoom="3.6875"
     inkscape:cx="17.084746"
     inkscape:cy="28.474576"
     inkscape:window-x="960"
     inkscape:window-y="28"
     inkscape:window-maximized="0"
     inkscape:current-layer="svg25" />
  <defs
     id="defs7">
    <linearGradient
       id="a"
       x1="-197.1"
       x2="-196.91"
       y1="217.68"
       y2="219.37"
       gradientTransform="rotate(-45 -338.07 -140.03)"
       gradientUnits="userSpaceOnUse">
      <stop
         offset="0"
         id="stop2" />
      <stop
         stop-opacity="0"
         offset="1"
         id="stop4" />
    </linearGradient>
  </defs>
  <path
     style="fill:#5294e2;paint-order:markers stroke fill"
     inkscape:connector-curvature="0"
     id="path9"
     d="m 3.44,2.378 c -0.294,0 -0.395,0.269 -0.53,0.53 H 2.117 a 0.528,0.528 0 0 0 -0.53,0.528 v 5.292 c 0,0.293 0.237,0.53 0.53,0.53 h 12.7 c 0.293,0 0.529,-0.237 0.529,-0.53 V 3.436 A 0.528,0.528 0 0 0 14.816,2.907 H 7.674 C 7.519,2.658 7.438,2.377 7.144,2.377 Z" />
  <path
     style="opacity:1;paint-order:markers stroke fill;fill:#fbb3bc;fill-opacity:1"
     inkscape:connector-curvature="0"
     id="path11"
     d="m 3.44,2.378 c -0.294,0 -0.395,0.269 -0.53,0.53 H 2.117 a 0.528,0.528 0 0 0 -0.53,0.528 v 5.292 c 0,0.293 0.237,0.53 0.53,0.53 h 12.7 c 0.293,0 0.529,-0.237 0.529,-0.53 V 3.436 A 0.528,0.528 0 0 0 14.816,2.907 H 7.674 C 7.519,2.658 7.438,2.377 7.144,2.377 Z" />
  <rect
     style="fill:#fbb3bc;paint-order:markers stroke fill;fill-opacity:1"
     id="rect13"
     ry="0.26499999"
     height="5.027"
     width="12.171"
     y="3.6999891"
     x="2.381" />
  <path
     inkscape:connector-curvature="0"
     id="path15"
     style="fill:#80d3ee;stroke-width:1.00000656;paint-order:markers stroke fill;fill-opacity:1"
     d="m 8.4670892,4.230105 c -0.2929959,0 -0.3821594,0.2756395 -0.52916,0.5286309 L 7.6278679,5.2899596 H 1.0578173 c -0.29307527,0 -0.52863084,0.2360927 -0.52863084,0.52916 v 8.4670894 c 0,0.293075 0.23557409,0.528631 0.52863084,0.528631 H 15.875356 c 0.293075,0 0.528842,-0.2345 0.528842,-0.527573 l -1.96e-4,-9.5248799 c 0,-0.2940013 -0.23564,-0.5322556 -0.528631,-0.5322556 z" />
  <path
     d="m6.879 7.9373v0.79373h3.1749v-0.79373zm-0.68034 1.0583c-0.18898 0-0.37797 0.18898-0.37797 0.37797v1.6253c0 0.18898 0.18898 0.37797 0.37797 0.37797h0.41577v-0.79373h3.7041v0.79373h0.41577c0.18898 0 0.37797-0.18898 0.37797-0.37797v-1.6253c0-0.18898-0.18898-0.37797-0.37797-0.37797zm0.68034 1.852v1.852h3.1749v-1.852z"
     fill="#fff"
     stroke-width=".37797"
     id="path23" />
</svg>
