<?xml version="1.0" encoding="UTF-8" standalone="no"?>
<svg
   xmlns:dc="http://purl.org/dc/elements/1.1/"
   xmlns:cc="http://creativecommons.org/ns#"
   xmlns:rdf="http://www.w3.org/1999/02/22-rdf-syntax-ns#"
   xmlns:svg="http://www.w3.org/2000/svg"
   xmlns="http://www.w3.org/2000/svg"
   xmlns:sodipodi="http://sodipodi.sourceforge.net/DTD/sodipodi-0.dtd"
   xmlns:inkscape="http://www.inkscape.org/namespaces/inkscape"
   width="64"
   height="64"
   version="1.1"
   viewBox="0 0 16.933 16.933"
   id="svg27"
   sodipodi:docname="default-user-home.svg"
   inkscape:version="0.92.3 (2405546, 2018-03-11)">
  <metadata
     id="metadata31">
    <rdf:RDF>
      <cc:Work
         rdf:about="">
        <dc:format>image/svg+xml</dc:format>
        <dc:type
           rdf:resource="http://purl.org/dc/dcmitype/StillImage" />
        <dc:title></dc:title>
      </cc:Work>
    </rdf:RDF>
  </metadata>
  <sodipodi:namedview
     pagecolor="#ffffff"
     bordercolor="#666666"
     borderopacity="1"
     objecttolerance="10"
     gridtolerance="10"
     guidetolerance="10"
     inkscape:pageopacity="0"
     inkscape:pageshadow="2"
     inkscape:window-width="960"
     inkscape:window-height="1024"
     id="namedview29"
     showgrid="false"
     inkscape:zoom="3.6875"
     inkscape:cx="11.932203"
     inkscape:cy="25.220339"
     inkscape:window-x="960"
     inkscape:window-y="28"
     inkscape:window-maximized="0"
     inkscape:current-layer="svg27" />
  <defs
     id="defs7">
    <linearGradient
       id="a"
       x1="-197.1"
       x2="-196.91"
       y1="217.68"
       y2="219.37"
       gradientTransform="rotate(-45 -338.07 -140.03)"
       gradientUnits="userSpaceOnUse">
      <stop
         offset="0"
         id="stop2" />
      <stop
         stop-opacity="0"
         offset="1"
         id="stop4" />
    </linearGradient>
  </defs>
  <path
     style="fill:#5294e2;paint-order:markers stroke fill"
     inkscape:connector-curvature="0"
     id="path9"
     d="m 3.44,2.378 c -0.294,0 -0.395,0.269 -0.53,0.53 H 2.117 a 0.528,0.528 0 0 0 -0.53,0.528 v 5.292 c 0,0.293 0.237,0.53 0.53,0.53 h 12.7 c 0.293,0 0.529,-0.237 0.529,-0.53 V 3.436 A 0.528,0.528 0 0 0 14.816,2.907 H 7.674 C 7.519,2.658 7.438,2.377 7.144,2.377 Z" />
  <path
     style="opacity:1;paint-order:markers stroke fill;fill:#b3e4f5;fill-opacity:1"
     inkscape:connector-curvature="0"
     id="path11"
     d="m 3.44,2.378 c -0.294,0 -0.395,0.269 -0.53,0.53 H 2.117 a 0.528,0.528 0 0 0 -0.53,0.528 v 5.292 c 0,0.293 0.237,0.53 0.53,0.53 h 12.7 c 0.293,0 0.529,-0.237 0.529,-0.53 V 3.436 A 0.528,0.528 0 0 0 14.816,2.907 H 7.674 C 7.519,2.658 7.438,2.377 7.144,2.377 Z" />
  <rect
     style="fill:#b3e4f5;paint-order:markers stroke fill;fill-opacity:1"
     id="rect13"
     ry="0.26499999"
     height="5.027"
     width="12.171"
     y="3.6999891"
     x="2.381" />
  <rect
     style="fill:#80d3ee;paint-order:markers stroke fill;fill-opacity:1"
     id="rect15"
     ry="0.52899998"
     height="9.5249996"
     width="15.875"
     y="5.2899852"
     x="0.52899998" />
  <path
     style="fill:#80d3ee;paint-order:markers stroke fill;fill-opacity:1"
     inkscape:connector-curvature="0"
     id="path17"
     d="m 8.467,4.23 h 7.408 c 0.293,0 0.53,0.236 0.53,0.53 v 3.968 c 0,0.293 -0.237,0.529 -0.53,0.529 H 6.152 c -0.294,0 -0.677,-0.276 -0.53,-0.53 L 7.938,4.759 C 8.085,4.506 8.174,4.23 8.467,4.23 Z" />
  <path
     style="fill:#ffffff;paint-order:stroke markers fill"
     inkscape:connector-curvature="0"
     id="path21"
     d="M 8.467,7.934 6.35,10.051 h 0.794 v 1.587 c 0,0.147 0.118,0.265 0.264,0.265 h 0.53 v -1.058 h 1.058 v 1.058 H 9.525 A 0.264,0.264 0 0 0 9.79,11.638 v -1.587 h 0.793 z m 0,1.323 a 0.53,0.53 0 1 1 0,1.058 0.53,0.53 0 0 1 0,-1.058 z" />
</svg>
